@startmindmap

<style>
node {
    Padding 10
    Margin 5
    HorizontalAlignment left
    MaximumWidth 500
    BackgroundColor white
}

rootNode {
    BackgroundColor white
    LineThickness 2.0
    RoundCorner 0
}

leafNode {
    RoundCorner 0
    Padding 5
}

</style>

* Java Fundamentals
** Arrays
*** 1 Dimensional
**** Declare, instantiate, initialize, and use a one-dimensional array \n**An array of a given type cannot hold anything else except values of that type \n**"Arrays of Strings" is a misconception, as arrays don't hold objects but references of those objects \n**An array is an object
***** Array Deceleration
****** **int[] ia1, ia2;// one dimension for both \n**int[][] iaa;//2D array \n**int i, ia[];//i is an int, ia is 1D. Think about the first data type encompasses the next variables \n**int[]ia, iaa[]; //ia 1D, iaa is 2D 
***** Creating and initializing Array Objects 
****** **Done through "Array creation expression" \nboolean[] ba = new boolean[3]; //Where 3 is the size \n**Each of the elements are initialized to default values: 0, 0.0, false, for var ref: null \n**You should be able to know what \ni.) name of the class \nii.) java.lang.Object as next statement. See Table pg 96.
***** Array Initializers
****** *To create as well as initialize each element of the array. For ex., \n** int[] a = {0,1,2,3}; //arary of size 4 \n**int[] ia = new int[]{0,1,2,3};// new keyword and size bracket is blank
***** Note: \n*int[] ia = new int[0];//Does not imply as null but an array of length 0
**** Members of an Array object
***** *length: public, final which is a var that stores the length\n*Array cloning: it merely create a new array object of the same length and copies the contents of existing array into the new array. \n**For primitives, create a new array with the same type and value \n**For references, creates a new array with same type and references \n*Members inherited from Object class: toString(), equals, hashCode, to name a few.
**** Runtime behaviors of array (not in exam but important)
***** *Reification: the type checking of arrays and its elements is done at runtime by the JVM instead at compile time by the compiler. Ex.: ArrayStoreException, you can assign an array of String to another array of another type but you can only store Strings. \n*Covariant: You can store a subclass object in an array that is declared to be of the types of its superclass. For ex.: \nNumber[] na = {1,2,3}; \nna[0] = new Float(1.2f);

left side
** 2 Dimensional
*** Declare, instantiate, initialize, and use multi-dimensional arrays \n* Java has "jagged" arrays, it means that length can be asymmetrical. For ex.: \nint[][] asymmetricArray = new int[][] {{1, 2, 3},{4, 5}};
**** Declaring and creating multi-dimensional \n*int[] ia[]; int ia[][]; int[][] iaaa[]; \n*You can never specify the length of the array in the type deceleration: int iaa[3][]; int[2][] iaa;// is illegal, this applies to 1D also \n*Rules of array creation expression and array initializers from 1D are applicable as well.

@endmindmap